…
``` r
# Combine precipitation datasets and convert month to a character variable

pre_2017_18 = 
  full_join(pre_2017_data, pre_2018_data) %>%
  mutate(month = month.name[month]) %>%
  replace_na(list(month = 'Sum'))

pre_2017_18
```

    ## # A tibble: 21 x 3
    ##    month     total  year
    ##    <chr>     <dbl> <dbl>
    ##  1 January    2.34  2017
    ##  2 February   1.46  2017
    ##  3 March      3.57  2017
    ##  4 April      3.99  2017
    ##  5 May        5.64  2017
    ##  6 June       1.4   2017
    ##  7 July       7.09  2017
    ##  8 August     4.44  2017
    ##  9 September  1.95  2017
    ## 10 October    0     2017
    ## # … with 11 more rows
…
